{
  "variables": {
    "aws_access_key": "{{env `aws_access_key`}}",
    "aws_secret_key": "{{env `aws_secret_key`}}"
  },
  "builders": [
    {
      "type": "amazon-ebs",
      "access_key": "{{user `aws_access_key`}}",
      "secret_key": "{{user `aws_secret_key`}}",
      "region": "us-east-1",
      "source_ami_filter": {
        "filters": {
          "virtualization-type": "hvm",
          "name": "ubuntu/images/*ubuntu-xenial-16.04-amd64-server-*",
          "root-device-type": "ebs"
        },
        "owners": ["099720109477"],
        "most_recent": true
      },
      "instance_type": "t2.micro",
      "ssh_username": "ubuntu",
      "ami_name": "ubuntu-16-base",
      "ami_users": ["685178538944"],
      "ami_regions": "us-west-1"
    }
  ],

  "provisioners": [
    {
      "type": "shell",
      "script": "my_script.sh"
    },
    {
      "type": "ansible-local",
      "playbook_file": "playbook.yml"
    }
    
  ],
  "post-processors": [
    {
      "type": "manifest",
      "output": "manifest.json",
      "strip_path": true,
      "custom_data": {
        "my_custom_data": "AMI image is created at {{timestamp}}"
      }
    }
  ]
}